digraph {
	node [fontsize=9 height=0.2 shape=circle width=0.2]
	-1 [fillcolor=lightgray shape=box style=filled]
	-2 [fillcolor=lightgray shape=box style=filled]
	-3 [fillcolor=lightgray shape=box style=filled]
	-4 [fillcolor=lightgray shape=box style=filled]
	-5 [fillcolor=lightgray shape=box style=filled]
	-6 [fillcolor=lightgray shape=box style=filled]
	-7 [fillcolor=lightgray shape=box style=filled]
	-8 [fillcolor=lightgray shape=box style=filled]
	-9 [fillcolor=lightgray shape=box style=filled]
	-10 [fillcolor=lightgray shape=box style=filled]
	-11 [fillcolor=lightgray shape=box style=filled]
	-12 [fillcolor=lightgray shape=box style=filled]
	-13 [fillcolor=lightgray shape=box style=filled]
	-14 [fillcolor=lightgray shape=box style=filled]
	-15 [fillcolor=lightgray shape=box style=filled]
	-16 [fillcolor=lightgray shape=box style=filled]
	-17 [fillcolor=lightgray shape=box style=filled]
	-18 [fillcolor=lightgray shape=box style=filled]
	-19 [fillcolor=lightgray shape=box style=filled]
	-20 [fillcolor=lightgray shape=box style=filled]
	-21 [fillcolor=lightgray shape=box style=filled]
	-22 [fillcolor=lightgray shape=box style=filled]
	-23 [fillcolor=lightgray shape=box style=filled]
	-24 [fillcolor=lightgray shape=box style=filled]
	-25 [fillcolor=lightgray shape=box style=filled]
	-26 [fillcolor=lightgray shape=box style=filled]
	-27 [fillcolor=lightgray shape=box style=filled]
	-28 [fillcolor=lightgray shape=box style=filled]
	-29 [fillcolor=lightgray shape=box style=filled]
	-30 [fillcolor=lightgray shape=box style=filled]
	-31 [fillcolor=lightgray shape=box style=filled]
	-32 [fillcolor=lightgray shape=box style=filled]
	-33 [fillcolor=lightgray shape=box style=filled]
	-34 [fillcolor=lightgray shape=box style=filled]
	-35 [fillcolor=lightgray shape=box style=filled]
	-36 [fillcolor=lightgray shape=box style=filled]
	-37 [fillcolor=lightgray shape=box style=filled]
	-38 [fillcolor=lightgray shape=box style=filled]
	-39 [fillcolor=lightgray shape=box style=filled]
	-40 [fillcolor=lightgray shape=box style=filled]
	-41 [fillcolor=lightgray shape=box style=filled]
	-42 [fillcolor=lightgray shape=box style=filled]
	-43 [fillcolor=lightgray shape=box style=filled]
	-44 [fillcolor=lightgray shape=box style=filled]
	-45 [fillcolor=lightgray shape=box style=filled]
	-46 [fillcolor=lightgray shape=box style=filled]
	-47 [fillcolor=lightgray shape=box style=filled]
	-48 [fillcolor=lightgray shape=box style=filled]
	-49 [fillcolor=lightgray shape=box style=filled]
	-50 [fillcolor=lightgray shape=box style=filled]
	-51 [fillcolor=lightgray shape=box style=filled]
	-52 [fillcolor=lightgray shape=box style=filled]
	-53 [fillcolor=lightgray shape=box style=filled]
	-54 [fillcolor=lightgray shape=box style=filled]
	-55 [fillcolor=lightgray shape=box style=filled]
	-56 [fillcolor=lightgray shape=box style=filled]
	-57 [fillcolor=lightgray shape=box style=filled]
	-58 [fillcolor=lightgray shape=box style=filled]
	-59 [fillcolor=lightgray shape=box style=filled]
	-60 [fillcolor=lightgray shape=box style=filled]
	-61 [fillcolor=lightgray shape=box style=filled]
	-62 [fillcolor=lightgray shape=box style=filled]
	-63 [fillcolor=lightgray shape=box style=filled]
	-64 [fillcolor=lightgray shape=box style=filled]
	-65 [fillcolor=lightgray shape=box style=filled]
	-66 [fillcolor=lightgray shape=box style=filled]
	-67 [fillcolor=lightgray shape=box style=filled]
	-68 [fillcolor=lightgray shape=box style=filled]
	-69 [fillcolor=lightgray shape=box style=filled]
	-70 [fillcolor=lightgray shape=box style=filled]
	-71 [fillcolor=lightgray shape=box style=filled]
	-72 [fillcolor=lightgray shape=box style=filled]
	-73 [fillcolor=lightgray shape=box style=filled]
	-74 [fillcolor=lightgray shape=box style=filled]
	-75 [fillcolor=lightgray shape=box style=filled]
	-76 [fillcolor=lightgray shape=box style=filled]
	-77 [fillcolor=lightgray shape=box style=filled]
	-78 [fillcolor=lightgray shape=box style=filled]
	-79 [fillcolor=lightgray shape=box style=filled]
	-80 [fillcolor=lightgray shape=box style=filled]
	-81 [fillcolor=lightgray shape=box style=filled]
	-82 [fillcolor=lightgray shape=box style=filled]
	-83 [fillcolor=lightgray shape=box style=filled]
	-84 [fillcolor=lightgray shape=box style=filled]
	-85 [fillcolor=lightgray shape=box style=filled]
	-86 [fillcolor=lightgray shape=box style=filled]
	-87 [fillcolor=lightgray shape=box style=filled]
	-88 [fillcolor=lightgray shape=box style=filled]
	-89 [fillcolor=lightgray shape=box style=filled]
	-90 [fillcolor=lightgray shape=box style=filled]
	-91 [fillcolor=lightgray shape=box style=filled]
	-92 [fillcolor=lightgray shape=box style=filled]
	-93 [fillcolor=lightgray shape=box style=filled]
	-94 [fillcolor=lightgray shape=box style=filled]
	-95 [fillcolor=lightgray shape=box style=filled]
	-96 [fillcolor=lightgray shape=box style=filled]
	-97 [fillcolor=lightgray shape=box style=filled]
	-98 [fillcolor=lightgray shape=box style=filled]
	-99 [fillcolor=lightgray shape=box style=filled]
	-100 [fillcolor=lightgray shape=box style=filled]
	-101 [fillcolor=lightgray shape=box style=filled]
	-102 [fillcolor=lightgray shape=box style=filled]
	-103 [fillcolor=lightgray shape=box style=filled]
	-104 [fillcolor=lightgray shape=box style=filled]
	-105 [fillcolor=lightgray shape=box style=filled]
	-106 [fillcolor=lightgray shape=box style=filled]
	-107 [fillcolor=lightgray shape=box style=filled]
	-108 [fillcolor=lightgray shape=box style=filled]
	-109 [fillcolor=lightgray shape=box style=filled]
	-110 [fillcolor=lightgray shape=box style=filled]
	-111 [fillcolor=lightgray shape=box style=filled]
	-112 [fillcolor=lightgray shape=box style=filled]
	-113 [fillcolor=lightgray shape=box style=filled]
	-114 [fillcolor=lightgray shape=box style=filled]
	-115 [fillcolor=lightgray shape=box style=filled]
	-116 [fillcolor=lightgray shape=box style=filled]
	-117 [fillcolor=lightgray shape=box style=filled]
	-118 [fillcolor=lightgray shape=box style=filled]
	-119 [fillcolor=lightgray shape=box style=filled]
	-120 [fillcolor=lightgray shape=box style=filled]
	-121 [fillcolor=lightgray shape=box style=filled]
	-122 [fillcolor=lightgray shape=box style=filled]
	-123 [fillcolor=lightgray shape=box style=filled]
	-124 [fillcolor=lightgray shape=box style=filled]
	-125 [fillcolor=lightgray shape=box style=filled]
	-126 [fillcolor=lightgray shape=box style=filled]
	-127 [fillcolor=lightgray shape=box style=filled]
	-128 [fillcolor=lightgray shape=box style=filled]
	-129 [fillcolor=lightgray shape=box style=filled]
	-130 [fillcolor=lightgray shape=box style=filled]
	-131 [fillcolor=lightgray shape=box style=filled]
	-132 [fillcolor=lightgray shape=box style=filled]
	-133 [fillcolor=lightgray shape=box style=filled]
	-134 [fillcolor=lightgray shape=box style=filled]
	-135 [fillcolor=lightgray shape=box style=filled]
	-136 [fillcolor=lightgray shape=box style=filled]
	-137 [fillcolor=lightgray shape=box style=filled]
	-138 [fillcolor=lightgray shape=box style=filled]
	-139 [fillcolor=lightgray shape=box style=filled]
	-140 [fillcolor=lightgray shape=box style=filled]
	-141 [fillcolor=lightgray shape=box style=filled]
	-142 [fillcolor=lightgray shape=box style=filled]
	-143 [fillcolor=lightgray shape=box style=filled]
	-144 [fillcolor=lightgray shape=box style=filled]
	-145 [fillcolor=lightgray shape=box style=filled]
	-146 [fillcolor=lightgray shape=box style=filled]
	-147 [fillcolor=lightgray shape=box style=filled]
	-148 [fillcolor=lightgray shape=box style=filled]
	-149 [fillcolor=lightgray shape=box style=filled]
	-150 [fillcolor=lightgray shape=box style=filled]
	-151 [fillcolor=lightgray shape=box style=filled]
	-152 [fillcolor=lightgray shape=box style=filled]
	-153 [fillcolor=lightgray shape=box style=filled]
	-154 [fillcolor=lightgray shape=box style=filled]
	-155 [fillcolor=lightgray shape=box style=filled]
	-156 [fillcolor=lightgray shape=box style=filled]
	-157 [fillcolor=lightgray shape=box style=filled]
	-158 [fillcolor=lightgray shape=box style=filled]
	-159 [fillcolor=lightgray shape=box style=filled]
	-160 [fillcolor=lightgray shape=box style=filled]
	-161 [fillcolor=lightgray shape=box style=filled]
	-162 [fillcolor=lightgray shape=box style=filled]
	-163 [fillcolor=lightgray shape=box style=filled]
	-164 [fillcolor=lightgray shape=box style=filled]
	-165 [fillcolor=lightgray shape=box style=filled]
	-166 [fillcolor=lightgray shape=box style=filled]
	-167 [fillcolor=lightgray shape=box style=filled]
	-168 [fillcolor=lightgray shape=box style=filled]
	-169 [fillcolor=lightgray shape=box style=filled]
	-170 [fillcolor=lightgray shape=box style=filled]
	-171 [fillcolor=lightgray shape=box style=filled]
	-172 [fillcolor=lightgray shape=box style=filled]
	-173 [fillcolor=lightgray shape=box style=filled]
	-174 [fillcolor=lightgray shape=box style=filled]
	-175 [fillcolor=lightgray shape=box style=filled]
	-176 [fillcolor=lightgray shape=box style=filled]
	-177 [fillcolor=lightgray shape=box style=filled]
	-178 [fillcolor=lightgray shape=box style=filled]
	-179 [fillcolor=lightgray shape=box style=filled]
	-180 [fillcolor=lightgray shape=box style=filled]
	-181 [fillcolor=lightgray shape=box style=filled]
	-182 [fillcolor=lightgray shape=box style=filled]
	-183 [fillcolor=lightgray shape=box style=filled]
	-184 [fillcolor=lightgray shape=box style=filled]
	-185 [fillcolor=lightgray shape=box style=filled]
	-186 [fillcolor=lightgray shape=box style=filled]
	-187 [fillcolor=lightgray shape=box style=filled]
	-188 [fillcolor=lightgray shape=box style=filled]
	-189 [fillcolor=lightgray shape=box style=filled]
	-190 [fillcolor=lightgray shape=box style=filled]
	-191 [fillcolor=lightgray shape=box style=filled]
	-192 [fillcolor=lightgray shape=box style=filled]
	-193 [fillcolor=lightgray shape=box style=filled]
	-194 [fillcolor=lightgray shape=box style=filled]
	-195 [fillcolor=lightgray shape=box style=filled]
	-196 [fillcolor=lightgray shape=box style=filled]
	-197 [fillcolor=lightgray shape=box style=filled]
	-198 [fillcolor=lightgray shape=box style=filled]
	-199 [fillcolor=lightgray shape=box style=filled]
	-200 [fillcolor=lightgray shape=box style=filled]
	-201 [fillcolor=lightgray shape=box style=filled]
	-202 [fillcolor=lightgray shape=box style=filled]
	-203 [fillcolor=lightgray shape=box style=filled]
	-204 [fillcolor=lightgray shape=box style=filled]
	-205 [fillcolor=lightgray shape=box style=filled]
	-206 [fillcolor=lightgray shape=box style=filled]
	-207 [fillcolor=lightgray shape=box style=filled]
	-208 [fillcolor=lightgray shape=box style=filled]
	0 [fillcolor=lightblue style=filled]
	1 [fillcolor=lightblue style=filled]
	1154 [fillcolor=white style=filled]
	3 [fillcolor=white style=filled]
	4 [fillcolor=white style=filled]
	5 [fillcolor=white style=filled]
	567 [fillcolor=white style=filled]
	995 [fillcolor=white style=filled]
	8 [fillcolor=white style=filled]
	905 [fillcolor=white style=filled]
	648 [fillcolor=white style=filled]
	1133 [fillcolor=white style=filled]
	1296 [fillcolor=white style=filled]
	945 [fillcolor=white style=filled]
	1203 [fillcolor=white style=filled]
	1109 [fillcolor=white style=filled]
	1335 [fillcolor=white style=filled]
	1177 [fillcolor=white style=filled]
	539 [fillcolor=white style=filled]
	605 [fillcolor=white style=filled]
	-171 -> 0 [color=green penwidth=0.17722494574104922 style=dotted]
	1177 -> 5 [color=red penwidth=0.3827947283307769 style=solid]
	-136 -> 539 [color=green penwidth=0.3034774402730215 style=dotted]
	-17 -> 1109 [color=green penwidth=0.26191812684895677 style=dotted]
	-42 -> 1177 [color=red penwidth=0.16342553832436174 style=solid]
	-63 -> 945 [color=green penwidth=0.35537723249013986 style=solid]
	-118 -> 5 [color=red penwidth=0.2591064003947052 style=solid]
	1335 -> 1109 [color=green penwidth=0.23916583871215547 style=solid]
	995 -> 1203 [color=green penwidth=0.3128359799775471 style=solid]
	-154 -> 945 [color=green penwidth=0.10614334601026128 style=solid]
	1203 -> 5 [color=green penwidth=0.14373332701244085 style=dotted]
	-56 -> 539 [color=green penwidth=0.10631213136459088 style=dotted]
	1133 -> 0 [color=red penwidth=0.17600064824759395 style=solid]
	-173 -> 1 [color=green penwidth=0.22536420626069317 style=solid]
	-192 -> 1 [color=green penwidth=0.16802358119376098 style=solid]
	-76 -> 605 [color=red penwidth=0.1593389599474799 style=solid]
	905 -> 0 [color=red penwidth=0.10463480192238163 style=dotted]
	995 -> 1177 [color=green penwidth=0.5797127214012103 style=dotted]
	-17 -> 1335 [color=green penwidth=0.29958998142267745 style=solid]
	-95 -> 5 [color=red penwidth=0.23100350626832697 style=solid]
	-171 -> 905 [color=green penwidth=0.20159960042071018 style=solid]
	905 -> 1154 [color=green penwidth=0.18991604321368544 style=solid]
	-82 -> 567 [color=red penwidth=0.2882875144231286 style=solid]
	-4 -> 648 [color=green penwidth=0.2332001371550928 style=dotted]
	1296 -> 1 [color=green penwidth=0.11449161801934499 style=solid]
	1154 -> 0 [color=green penwidth=0.515028955072028 style=dotted]
	945 -> 648 [color=green penwidth=0.10716452157603834 style=solid]
	-74 -> 648 [color=red penwidth=0.3261169884971409 style=dotted]
	-139 -> 3 [color=green penwidth=0.31979608877716303 style=dotted]
	648 -> 1 [color=red penwidth=0.2898366336598456 style=dotted]
	-78 -> 1109 [color=green penwidth=0.27768438593203615 style=solid]
	648 -> 1296 [color=green penwidth=0.3207178099589264 style=solid]
	-86 -> 3 [color=red penwidth=0.396655278460308 style=solid]
	-171 -> 1133 [color=green penwidth=0.616860328067642 style=solid]
	-26 -> 5 [color=green penwidth=0.3016861873761082 style=solid]
	995 -> 5 [color=red penwidth=0.35679257154998556 style=solid]
}
